Have a grid like this



----------------------------------------------------------
|                                                        |
|                   Header Text                          |
----------------------------------------------------------
|          |              |              |               |
|          |       f      |              |        H      |
|    I     |       I      |              |        Y      |
|    N     |       R      |              |        P      |
|    P     |       S      |       O      |        E      |
|    U     |       T      |       U      |        R      |
|    T     |              |       T      |        P      |
|          |              |       P      |        A      |
|    L     |       L      |       U      |        R      |
|    A     |       A      |       T      |        A      |
|    Y     |       Y      |              |        M      |
|    E     |       E      |              |        E      |
|    R     |       R      |              |        T      |
|          |              |              |        E      |
|          |              |              |        R      |
|          |              |              |               |
----------------------------------------------------------